<svg width="16" height="16" viewBox="0 0 16 16" fill="none" xmlns="http://www.w3.org/2000/svg">
    <rect x="1" y="10" width="7" height="4" stroke="currentColor" stroke-width="2"/>
    <rect x="4" y="6" width="7" height="4" stroke="currentColor" stroke-width="2"/>
    <rect x="8" y="2" width="7" height="4" stroke="currentColor" stroke-width="2"/>
</svg>