<?xml version="1.0" encoding="UTF-8" standalone="no"?>
<svg
      xmlns="http://www.w3.org/2000/svg"
      width="16"
      height="16"
      viewBox="0 0 16 16"
      fill="none"
      version="1.1">
   <path
         d="M14 8H2"
         stroke="currentColor"
         stroke-width="2"
         stroke-linecap="round"
         stroke-linejoin="round" />
   <path
         d="M11 2H12C13.1046 2 14 2.89543 14 4V5"
         stroke="currentColor"
         stroke-width="2"
         stroke-linecap="round"
         stroke-linejoin="round" />
   <path
         d="M5 14L4 14C2.89543 14 2 13.1046 2 12L2 11"
         stroke="currentColor"
         stroke-width="2"
         stroke-linecap="round"
         stroke-linejoin="round" />
   <path
         d="M14 11V12C14 13.1046 13.1046 14 12 14H11"
         stroke="currentColor"
         stroke-width="2"
         stroke-linecap="round"
         stroke-linejoin="round" />
   <path
         d="M2 5L2 4C2 2.89543 2.89543 2 4 2L5 2"
         stroke="currentColor"
         stroke-width="2"
         stroke-linecap="round"
         stroke-linejoin="round" />
</svg>
