<svg width="16" height="16" viewBox="0 0 24 24" xmlns="http://www.w3.org/2000/svg">
  <!-- Calendar outline -->
  <rect x="3" y="4" width="18" height="18" rx="2" ry="2" fill="none" stroke="currentColor" stroke-width="2"/>
  <!-- Calendar top bar border only, with rounded corners and no fill (transparent) -->
  <rect x="3" y="4" width="18" height="4" rx="2" ry="2" fill="none" stroke="currentColor" stroke-width="2"/>
  <!-- Calendar rings -->
  <line x1="7" y1="2" x2="7" y2="6" stroke="currentColor" stroke-width="2"/>
  <line x1="17" y1="2" x2="17" y2="6" stroke="currentColor" stroke-width="2"/>
  <!-- TMSS text -->
  <text x="50%" y="75%" text-anchor="middle" font-family="arial" font-size="9" fill="currentColor">T</text>
</svg>
